{"photos":{"page":1,"pages":17864,"perpage":10,"total":"178632","photo":[
    {
        "id":"4136507840",
        "owner":"44210122@N08",
        "secret":"073ce77930",
        "server":"2545",
        "farm":3,
        "title":"IMG_0473",
        "ispublic":1,
        "isfriend":0,
        "isfamily":0
    },
    {
        "id":"4135637303",
        "owner":"40135575@N03",
        "secret":"8ed9c920a6",
        "server":"2682",
        "farm":3,
        "title":"Peau d'Ane",
        "ispublic":1,
        "isfriend":0,
        "isfamily":0
    },
    {
        "id":"4136398438",
        "owner":"40135575@N03",
        "secret":"5e1afb6fbf",
        "server":"2721",
        "farm":3,
        "title":"Peau d'Ane",
        "ispublic":1,
        "isfriend":0,
        "isfamily":0
    },
    {
        "id":"4136397996",
        "owner":"40135575@N03",
        "secret":"afb8e1105b",
        "server":"2575",
        "farm":3,
        "title":"Peau d'Ane",
        "ispublic":1,
        "isfriend":0,
        "isfamily":0
    },
    {
        "id":"4136397528",
        "owner":"40135575@N03",
        "secret":"ec51e97a4e",
        "server":"2641",
        "farm":3,
        "title":"Peau d'Ane",
        "ispublic":1,
        "isfriend":0,
        "isfamily":0
    },
    {
        "id":"4135636845",
        "owner":"40135575@N03",
        "secret":"1a6b279fa3",
        "server":"2445",
        "farm":3,
        "title":"Peau d'Ane",
        "ispublic":1,
        "isfriend":0,
        "isfamily":0
    },
    {
        "id":"4135588435",
        "owner":"82833669@N00",
        "secret":"669c4ed700",
        "server":"2610",
        "farm":3,
        "title":"EZE",
        "ispublic":1,
        "isfriend":0,
        "isfamily":0
    },
    {
        "id":"4136344370",
        "owner":"82833669@N00",
        "secret":"f04a614685",
        "server":"2713",
        "farm":3,
        "title":"Donkeys Chateau EZE",
        "ispublic":1,
        "isfriend":0,
        "isfamily":0
    },
    {
        "id":"4136263326",
        "owner":"62204131@N00",
        "secret":"7c34d2a4b3",
        "server":"2793",
        "farm":3,
        "title":"sniper on a donkey",
        "ispublic":1,
        "isfriend":0,
        "isfamily":0
    },
    {
        "id":"4135453811",
        "owner":"16411138@N04",
        "secret":"817e7892e2",
        "server":"2622",
        "farm":3,
        "title":"Big Draw - Draw the tail on the donkey Glynn Viv",
        "ispublic":1,
        "isfriend":0,
        "isfamily":0
    }
]},"stat":"ok"}